G04 DipTrace 3.3.1.3*
G04 BottomMask.gbr*
%MOIN*%
G04 #@! TF.FileFunction,Soldermask,Bot*
G04 #@! TF.Part,Single*
%ADD44C,0.11811*%
%ADD51C,0.07178*%
%ADD53R,0.07178X0.07178*%
%ADD61O,0.185165X0.08674*%
%ADD63O,0.08674X0.20485*%
%ADD65O,0.08674X0.185165*%
%ADD75C,0.137921*%
%ADD77C,0.070992*%
%ADD79R,0.070992X0.070992*%
%FSLAX26Y26*%
G04*
G70*
G90*
G75*
G01*
G04 BotMask*
%LPD*%
D79*
X1325348Y2661684D3*
D77*
X1423773Y2661644D3*
Y2788022D3*
X1325348D3*
D75*
X1611568Y2768140D3*
X1137552D3*
D65*
X2162936Y1024012D3*
D63*
X1926715D3*
D61*
X2044825Y1209051D3*
D53*
X1394147Y1805344D3*
D51*
X1494147D3*
X1594147D3*
X1694147D3*
X1794147D3*
D44*
X1378252Y590850D3*
Y3149906D3*
M02*
