G04 DipTrace 3.3.1.3*
G04 TopSilk.gbr*
%MOIN*%
G04 #@! TF.FileFunction,Legend,Top*
G04 #@! TF.Part,Single*
%ADD10C,0.009843*%
%ADD19C,0.015413*%
%ADD22C,0.015404*%
%ADD27C,0.023606*%
%ADD29C,0.015416*%
%ADD37C,0.078732*%
%ADD89C,0.006176*%
%ADD90C,0.012351*%
%FSLAX26Y26*%
G04*
G70*
G90*
G75*
G01*
G04 TopSilk*
%LPD*%
X1918015Y3127315D2*
D10*
Y2733646D1*
X2020392Y3127315D2*
Y2733646D1*
X1918015D2*
X2020392D1*
X1918015Y3127315D2*
X1949509D1*
X1988898D2*
X2020392D1*
X1949509D2*
G03X1988898Y3127315I19694J11D01*
G01*
D19*
X1738894Y2573178D3*
X1787999Y2578609D2*
D10*
Y2608125D1*
X2236818Y2415211D2*
Y2444727D1*
X1787999Y2415211D2*
X2236818D1*
X1787999D2*
Y2444727D1*
X2236818Y2578609D2*
Y2608125D1*
X1787999D2*
X2236818D1*
X1852798Y2311079D2*
Y2362220D1*
X2197840D2*
Y2311079D1*
X2054075Y3224811D2*
Y3173669D1*
D22*
X656123Y2532628D3*
X646922Y2482486D2*
D10*
X528818D1*
Y2462800D1*
X646922D1*
Y2482486D1*
X1611545Y2950129D2*
Y2849934D1*
Y2686353D2*
Y2497373D1*
X1137575D1*
Y2686308D1*
Y2849934D2*
Y2950129D1*
X1611545D1*
X1707975Y1491469D2*
X1708007Y1410761D1*
X1707975Y1491469D2*
X1491469D1*
X1448175Y1448153D2*
X1491469Y1491469D1*
X1448175Y1448153D2*
Y1410761D1*
X1708007Y1312333D2*
X1707975Y1231626D1*
X1491469D1*
X1448175Y1274942D2*
X1491469Y1231626D1*
X1448175Y1312333D2*
Y1274942D1*
D27*
X1424520Y1418622D3*
X647677Y1105839D2*
D10*
Y1054697D1*
Y1193348D2*
Y1142206D1*
Y1018329D2*
Y967188D1*
X494134Y810921D2*
Y862063D1*
X1219321Y741969D2*
Y1143517D1*
Y741969D2*
X1113008D1*
X1219321Y1143517D2*
X1113008D1*
D29*
X1338133Y794072D3*
X1687341Y961018D2*
D10*
X1762339D1*
X1687341Y1087006D2*
X1762339D1*
X2466085Y846846D2*
Y1201196D1*
X2151135D1*
X1938506D2*
X1899151D1*
Y1132286D1*
Y915757D2*
Y846846D1*
X2466085D1*
X1400924Y1507707D2*
X1349782D1*
X400432Y1580320D2*
X557896D1*
X400432Y2210241D2*
X557896D1*
X400432Y1580320D2*
Y2210241D1*
X1266573D2*
Y1580320D1*
D37*
X518530Y1698430D3*
G36*
X479164Y1816541D2*
X557896D1*
Y2131501D1*
X479164D1*
Y1816541D1*
G37*
X2012920Y1485438D2*
D10*
Y1611391D1*
X2158589Y1485438D2*
Y1611391D1*
X2012920Y1552342D2*
X2044416D1*
X2154652D2*
X2131030D1*
X2103471D2*
G02X2103471Y1552342I11811J0D01*
G01*
X2044416D2*
G02X2044416Y1552342I11811J0D01*
G01*
X2107408Y1540526D2*
X2064101Y1512965D1*
X2019171Y2010493D2*
Y2136446D1*
X2164840Y2010493D2*
Y2136446D1*
X2019171Y2077397D2*
X2050667D1*
X2160903D2*
X2137281D1*
X2109722D2*
G02X2109722Y2077397I11811J0D01*
G01*
X2050667D2*
G02X2050667Y2077397I11811J0D01*
G01*
X2113659Y2065581D2*
X2070352Y2038020D1*
D22*
X874896Y2532628D3*
X865695Y2482486D2*
D10*
X747591D1*
Y2462800D1*
X865695D1*
Y2482486D1*
X1334304Y1854556D2*
X1853990D1*
Y1756131D1*
X1334304D1*
Y1854556D1*
X1977973Y3277796D2*
D89*
X1976072Y3281598D1*
X1972225Y3285445D1*
X1968423Y3287346D1*
X1960773D1*
X1956926Y3285445D1*
X1953124Y3281598D1*
X1951178Y3277796D1*
X1949277Y3272048D1*
Y3262453D1*
X1951178Y3256749D1*
X1953124Y3252902D1*
X1956926Y3249100D1*
X1960773Y3247154D1*
X1968423D1*
X1972225Y3249100D1*
X1976072Y3252902D1*
X1977973Y3256749D1*
X2013272Y3287302D2*
X1994171D1*
X1992270Y3270102D1*
X1994171Y3272003D1*
X1999919Y3273949D1*
X2005623D1*
X2011371Y3272003D1*
X2015218Y3268201D1*
X2017119Y3262453D1*
Y3258650D1*
X2015218Y3252902D1*
X2011371Y3249055D1*
X2005623Y3247154D1*
X1999919D1*
X1994171Y3249055D1*
X1992270Y3251001D1*
X1990324Y3254803D1*
X1296798Y1570986D2*
X1292995Y1569085D1*
X1289148Y1565238D1*
X1287247Y1561435D1*
Y1553786D1*
X1289148Y1549939D1*
X1292995Y1546137D1*
X1296798Y1544191D1*
X1302546Y1542290D1*
X1312140D1*
X1317844Y1544191D1*
X1321691Y1546137D1*
X1325494Y1549939D1*
X1327439Y1553786D1*
Y1561435D1*
X1325494Y1565238D1*
X1321691Y1569085D1*
X1317844Y1570986D1*
X1294941Y1583337D2*
X1292995Y1587184D1*
X1287291Y1592932D1*
X1327439D1*
X1294941Y1605283D2*
X1292995Y1609130D1*
X1287291Y1614878D1*
X1327439D1*
X1945928Y1458671D2*
Y1475871D1*
X1943982Y1481619D1*
X1942081Y1483564D1*
X1938279Y1485465D1*
X1934432D1*
X1930629Y1483564D1*
X1928684Y1481619D1*
X1926782Y1475871D1*
Y1458671D1*
X1966974D1*
X1945928Y1472068D2*
X1966974Y1485465D1*
X1926782Y1522666D2*
Y1497817D1*
X1966974D1*
Y1522666D1*
X1945928Y1497817D2*
Y1513115D1*
X1932531Y1561812D2*
X1928684Y1558010D1*
X1926782Y1552261D1*
Y1544612D1*
X1928684Y1538864D1*
X1932531Y1535017D1*
X1936333D1*
X1940180Y1536963D1*
X1942081Y1538864D1*
X1943982Y1542667D1*
X1947829Y1554163D1*
X1949730Y1558010D1*
X1951676Y1559911D1*
X1955478Y1561812D1*
X1961226D1*
X1965029Y1558009D1*
X1966974Y1552261D1*
Y1544612D1*
X1965029Y1538864D1*
X1961226Y1535017D1*
X1926782Y1599013D2*
Y1574163D1*
X1966974D1*
Y1599013D1*
X1945928Y1574163D2*
Y1589462D1*
X1926782Y1624761D2*
X1966974D1*
X1926782Y1611364D2*
Y1638159D1*
X1168878Y1334725D2*
Y1351925D1*
X1166932Y1357673D1*
X1165031Y1359619D1*
X1161229Y1361520D1*
X1157382D1*
X1153579Y1359619D1*
X1151634Y1357673D1*
X1149733Y1351925D1*
Y1334725D1*
X1189925D1*
X1168878Y1348123D2*
X1189925Y1361520D1*
X1159327Y1375817D2*
X1157426D1*
X1153579Y1377718D1*
X1151678Y1379619D1*
X1149777Y1383466D1*
Y1391115D1*
X1151678Y1394918D1*
X1153579Y1396819D1*
X1157426Y1398765D1*
X1161229D1*
X1165075Y1396819D1*
X1170779Y1393017D1*
X1189925Y1373871D1*
Y1400666D1*
X1111006Y2443114D2*
X1128206D1*
X1133954Y2445060D1*
X1135899Y2446961D1*
X1137801Y2450764D1*
Y2454610D1*
X1135899Y2458413D1*
X1133954Y2460358D1*
X1128206Y2462260D1*
X1111006D1*
Y2422068D1*
X1124403Y2443114D2*
X1137801Y2422068D1*
X1157801D2*
X1176947Y2462215D1*
X1150152D1*
X943854Y2361010D2*
Y2378210D1*
X941909Y2383958D1*
X940008Y2385904D1*
X936205Y2387805D1*
X932358D1*
X928556Y2385904D1*
X926610Y2383958D1*
X924709Y2378210D1*
Y2361010D1*
X964901D1*
X943854Y2374408D2*
X964901Y2387805D1*
X930457Y2423104D2*
X926654Y2421203D1*
X924753Y2415455D1*
Y2411652D1*
X926654Y2405904D1*
X932403Y2402058D1*
X941953Y2400156D1*
X951504D1*
X959153Y2402058D1*
X963000Y2405904D1*
X964901Y2411652D1*
Y2413554D1*
X963000Y2419257D1*
X959153Y2423104D1*
X953405Y2425006D1*
X951504D1*
X945756Y2423104D1*
X941953Y2419258D1*
X940052Y2413554D1*
Y2411652D1*
X941953Y2405904D1*
X945756Y2402058D1*
X951504Y2400156D1*
X2073812Y1324247D2*
X2091012D1*
X2096760Y1326192D1*
X2098705Y1328094D1*
X2100606Y1331896D1*
Y1335743D1*
X2098705Y1339545D1*
X2096760Y1341491D1*
X2091012Y1343392D1*
X2073812D1*
Y1303200D1*
X2087209Y1324247D2*
X2100606Y1303200D1*
X2116805Y1343348D2*
X2137807D1*
X2126355Y1328049D1*
X2132103D1*
X2135906Y1326148D1*
X2137807Y1324247D1*
X2139753Y1318499D1*
Y1314696D1*
X2137807Y1308948D1*
X2134004Y1305101D1*
X2128256Y1303200D1*
X2122508D1*
X2116805Y1305101D1*
X2114903Y1307047D1*
X2112958Y1310849D1*
X1947848Y1780545D2*
X1965048D1*
X1970796Y1782490D1*
X1972741Y1784391D1*
X1974643Y1788194D1*
Y1792041D1*
X1972741Y1795843D1*
X1970796Y1797789D1*
X1965048Y1799690D1*
X1947848D1*
Y1759498D1*
X1961245Y1780545D2*
X1974643Y1759498D1*
X2006139D2*
Y1799646D1*
X1986994Y1772895D1*
X2015690D1*
X1942584Y2021022D2*
X1938781Y2019121D1*
X1934934Y2015274D1*
X1933033Y2011471D1*
Y2003822D1*
X1934934Y1999975D1*
X1938781Y1996173D1*
X1942584Y1994227D1*
X1948332Y1992326D1*
X1957926D1*
X1963630Y1994227D1*
X1967477Y1996173D1*
X1971280Y1999975D1*
X1973225Y2003822D1*
Y2011471D1*
X1971280Y2015274D1*
X1967477Y2019120D1*
X1963630Y2021022D1*
X1957927D1*
Y2011471D1*
X1954080Y2033373D2*
Y2050617D1*
X1952179Y2056321D1*
X1950233Y2058267D1*
X1946430Y2060168D1*
X1940682D1*
X1936880Y2058267D1*
X1934934Y2056321D1*
X1933033Y2050617D1*
Y2033373D1*
X1973225D1*
X1933033Y2072519D2*
X1973225D1*
X1933033Y2096367D2*
X1934934Y2092520D1*
X1938781Y2088717D1*
X1942584Y2086772D1*
X1948332Y2084871D1*
X1957927D1*
X1963630Y2086772D1*
X1967477Y2088717D1*
X1971280Y2092520D1*
X1973225Y2096367D1*
Y2104016D1*
X1971280Y2107818D1*
X1967477Y2111665D1*
X1963630Y2113567D1*
X1957927Y2115468D1*
X1948332D1*
X1942584Y2113567D1*
X1938781Y2111665D1*
X1934934Y2107819D1*
X1933033Y2104016D1*
Y2096367D1*
X1933077Y2139315D2*
X1934979Y2133567D1*
X1940727Y2129720D1*
X1950277Y2127819D1*
X1956025D1*
X1965576Y2129720D1*
X1971324Y2133567D1*
X1973225Y2139315D1*
Y2143118D1*
X1971324Y2148866D1*
X1965576Y2152668D1*
X1956025Y2154614D1*
X1950277D1*
X1940727Y2152668D1*
X1934979Y2148866D1*
X1933077Y2143118D1*
Y2139315D1*
X1940727Y2152668D2*
X1965576Y2129720D1*
X927397Y1322556D2*
X887205D1*
X927397Y1307258D1*
X887205Y1291959D1*
X927397D1*
X887205Y1346404D2*
X889062Y1342601D1*
X892909Y1338755D1*
X896756Y1336853D1*
X902504Y1334908D1*
X912054D1*
X917802Y1336853D1*
X921605Y1338755D1*
X925452Y1342601D1*
X927353Y1346404D1*
Y1354053D1*
X925452Y1357900D1*
X921605Y1361702D1*
X917802Y1363604D1*
X912054Y1365549D1*
X902504D1*
X896756Y1363604D1*
X892909Y1361703D1*
X889062Y1357900D1*
X887205Y1354053D1*
Y1346404D1*
X919704Y1352152D2*
X931200Y1363604D1*
X887205Y1391298D2*
X927397D1*
X887205Y1377901D2*
Y1404695D1*
Y1430444D2*
X927397D1*
X887205Y1417047D2*
Y1443841D1*
X643823Y1343530D2*
Y1360730D1*
X641877Y1366478D1*
X639976Y1368423D1*
X636174Y1370325D1*
X632327D1*
X628524Y1368423D1*
X626579Y1366478D1*
X624677Y1360730D1*
Y1343530D1*
X664869D1*
X643823Y1356927D2*
X664870Y1370325D1*
X632371Y1382676D2*
X630426Y1386523D1*
X624722Y1392271D1*
X664869D1*
X1037614Y1334930D2*
Y1352130D1*
X1035669Y1357878D1*
X1033767Y1359823D1*
X1029965Y1361725D1*
X1026118D1*
X1022316Y1359823D1*
X1020370Y1357878D1*
X1018469Y1352130D1*
Y1334930D1*
X1058661D1*
X1037614Y1348327D2*
X1058661Y1361725D1*
X1018513Y1397024D2*
Y1377923D1*
X1035713Y1376022D1*
X1033812Y1377923D1*
X1031866Y1383671D1*
Y1389375D1*
X1033812Y1395123D1*
X1037614Y1398969D1*
X1043362Y1400871D1*
X1047165D1*
X1052913Y1398969D1*
X1056760Y1395123D1*
X1058661Y1389375D1*
Y1383671D1*
X1056760Y1377923D1*
X1054814Y1376021D1*
X1051012Y1374076D1*
X755941Y1317781D2*
X796133Y1327376D1*
X755941Y1336927D1*
X796133Y1346477D1*
X755941Y1356072D1*
Y1368423D2*
X796133D1*
X755941Y1405668D2*
Y1380775D1*
X796133D1*
X775087D2*
Y1396073D1*
X755941Y1418019D2*
X796133D1*
X1151109Y1856352D2*
D90*
X1200807D1*
Y1936736D1*
X1151109D1*
X1200807Y1894642D2*
X1170210Y1894643D1*
X1072817Y1867848D2*
X1080422Y1860154D1*
X1091918Y1856352D1*
X1107216D1*
X1118712Y1860154D1*
X1126406Y1867848D1*
Y1875453D1*
X1122515Y1883146D1*
X1118712Y1886949D1*
X1111107Y1890752D1*
X1088115Y1898445D1*
X1080422Y1902248D1*
X1076619Y1906139D1*
X1072817Y1913744D1*
Y1925240D1*
X1080422Y1932845D1*
X1091918Y1936736D1*
X1107216D1*
X1118713Y1932845D1*
X1126406Y1925240D1*
X1048114Y1898445D2*
X1013626D1*
X1002218Y1894643D1*
X998327Y1890752D1*
X994525Y1883146D1*
Y1871650D1*
X998327Y1864045D1*
X1002218Y1860154D1*
X1013626Y1856352D1*
X1048114D1*
Y1936736D1*
X950721Y1856440D2*
X962128Y1860243D1*
X966019Y1867848D1*
Y1875541D1*
X962128Y1883146D1*
X954523Y1887037D1*
X939225Y1890840D1*
X927729Y1894643D1*
X920123Y1902336D1*
X916321Y1909941D1*
Y1921437D1*
X920123Y1929042D1*
X923926Y1932933D1*
X935422Y1936736D1*
X950721D1*
X962128Y1932933D1*
X966019Y1929042D1*
X969822Y1921437D1*
Y1909941D1*
X966019Y1902336D1*
X958326Y1894643D1*
X946918Y1890840D1*
X931620Y1887037D1*
X923926Y1883146D1*
X920123Y1875541D1*
Y1867848D1*
X923926Y1860243D1*
X935422Y1856440D1*
X950721D1*
X887727Y1875541D2*
Y1871739D1*
X883925Y1864045D1*
X880122Y1860243D1*
X872429Y1856440D1*
X857130D1*
X849525Y1860243D1*
X845722Y1864045D1*
X841831Y1871739D1*
Y1879344D1*
X845722Y1887037D1*
X853327Y1898445D1*
X891618Y1936736D1*
X838029D1*
X767430Y1867848D2*
X771233Y1860243D1*
X782729Y1856440D1*
X790334D1*
X801830Y1860243D1*
X809523Y1871739D1*
X813326Y1890840D1*
Y1909941D1*
X809523Y1925240D1*
X801830Y1932933D1*
X790334Y1936736D1*
X786531D1*
X775124Y1932933D1*
X767430Y1925240D1*
X763628Y1913744D1*
Y1909941D1*
X767430Y1898445D1*
X775124Y1890840D1*
X786531Y1887037D1*
X790334D1*
X801830Y1890840D1*
X809523Y1898445D1*
X813326Y1909941D1*
X693029Y1867848D2*
X696832Y1860243D1*
X708328Y1856440D1*
X715933D1*
X727429Y1860243D1*
X735122Y1871739D1*
X738925Y1890840D1*
Y1909941D1*
X735122Y1925240D1*
X727429Y1932933D1*
X715933Y1936736D1*
X712130D1*
X700723Y1932933D1*
X693029Y1925240D1*
X689226Y1913744D1*
Y1909941D1*
X693029Y1898445D1*
X700723Y1890840D1*
X712130Y1887037D1*
X715933D1*
X727429Y1890840D1*
X735122Y1898445D1*
X738925Y1909941D1*
M02*
